\relax 
\@writefile{toc}{\contentsline {chapter}{Appendices}{34}\protected@file@percent }
\@writefile{toc}{\contentsline {chapter}{\numberline {A}Self-appraisal}{34}\protected@file@percent }
\@writefile{lof}{\addvspace {10\p@ }}
\@writefile{lot}{\addvspace {10\p@ }}
\@writefile{toc}{\contentsline {section}{\numberline {A.1}Critical self-evaluation}{34}\protected@file@percent }
\@writefile{toc}{\contentsline {subsection}{\numberline {A.1.1}Strengths}{34}\protected@file@percent }
\@writefile{toc}{\contentsline {section}{\numberline {A.2}Personal reflection and lessons learned}{35}\protected@file@percent }
\@writefile{toc}{\contentsline {subsection}{\numberline {A.2.1}Lessons Learnt}{36}\protected@file@percent }
\@writefile{toc}{\contentsline {section}{\numberline {A.3}Legal, social, ethical and professional issues}{36}\protected@file@percent }
\@writefile{toc}{\contentsline {subsection}{\numberline {A.3.1}Legal issues}{36}\protected@file@percent }
\@writefile{lof}{\contentsline {figure}{\numberline {A.1}{\ignorespaces Fair Usage Policy for COVID-19 dataset}}{36}\protected@file@percent }
\citation{overeliance}
\@writefile{toc}{\contentsline {subsection}{\numberline {A.3.2}Social issues}{37}\protected@file@percent }
\@writefile{toc}{\contentsline {subsection}{\numberline {A.3.3}Ethical issues}{37}\protected@file@percent }
\@writefile{toc}{\contentsline {subsection}{\numberline {A.3.4}Professional issues}{38}\protected@file@percent }
\@writefile{toc}{\contentsline {chapter}{\numberline {B}External Material}{39}\protected@file@percent }
\@writefile{lof}{\addvspace {10\p@ }}
\@writefile{lot}{\addvspace {10\p@ }}
\@writefile{toc}{\contentsline {chapter}{\numberline {C}Development Tools}{40}\protected@file@percent }
\@writefile{lof}{\addvspace {10\p@ }}
\@writefile{lot}{\addvspace {10\p@ }}
\newlabel{development_tools}{{C}{40}}
\@writefile{lof}{\contentsline {figure}{\numberline {C.1}{\ignorespaces Summary of Git history}}{40}\protected@file@percent }
\newlabel{git_history1}{{C.1}{40}}
\@writefile{lof}{\contentsline {figure}{\numberline {C.2}{\ignorespaces Git commit history}}{40}\protected@file@percent }
\newlabel{git_history2}{{C.2}{40}}
\@writefile{lof}{\contentsline {figure}{\numberline {C.3}{\ignorespaces VSCode}}{41}\protected@file@percent }
\newlabel{vscode}{{C.3}{41}}
\@writefile{lof}{\contentsline {figure}{\numberline {C.4}{\ignorespaces Trello Kanban Board}}{41}\protected@file@percent }
\newlabel{trello}{{C.4}{41}}
\@writefile{lof}{\contentsline {figure}{\numberline {C.5}{\ignorespaces Demonstration of Python's unittest package}}{42}\protected@file@percent }
\newlabel{unittesting}{{C.5}{42}}
\@writefile{toc}{\contentsline {chapter}{\numberline {D}Use Case \& User Stories}{43}\protected@file@percent }
\@writefile{lof}{\addvspace {10\p@ }}
\@writefile{lot}{\addvspace {10\p@ }}
\@writefile{lof}{\contentsline {figure}{\numberline {D.1}{\ignorespaces Use Case Diagram}}{43}\protected@file@percent }
\newlabel{use_case_diagram}{{D.1}{43}}
\@writefile{lof}{\contentsline {figure}{\numberline {D.2}{\ignorespaces User Stories}}{43}\protected@file@percent }
\newlabel{user_stories}{{D.2}{43}}
\@writefile{toc}{\contentsline {chapter}{\numberline {E}Model Parameters}{44}\protected@file@percent }
\@writefile{lof}{\addvspace {10\p@ }}
\@writefile{lot}{\addvspace {10\p@ }}
\newlabel{model_parameters}{{E}{44}}
\@writefile{lot}{\contentsline {table}{\numberline {E.1}{\ignorespaces Simulation parameters (part one)}}{44}\protected@file@percent }
\@writefile{lot}{\contentsline {table}{\numberline {E.2}{\ignorespaces Simulation parameters (part two)}}{45}\protected@file@percent }
\@writefile{lot}{\contentsline {table}{\numberline {E.3}{\ignorespaces Intervention parameters}}{45}\protected@file@percent }
\newlabel{intervention_parameters}{{E.3}{45}}
\@writefile{toc}{\contentsline {chapter}{\numberline {F}UI Mockups}{46}\protected@file@percent }
\@writefile{lof}{\addvspace {10\p@ }}
\@writefile{lot}{\addvspace {10\p@ }}
\newlabel{ui_mockups}{{F}{46}}
\@writefile{lof}{\contentsline {figure}{\numberline {F.1}{\ignorespaces Instructions UI mock-up}}{46}\protected@file@percent }
\@writefile{lof}{\contentsline {figure}{\numberline {F.2}{\ignorespaces Disease Configuration UI mock-up}}{46}\protected@file@percent }
\@writefile{lof}{\contentsline {figure}{\numberline {F.3}{\ignorespaces Population Configuration UI mock-up}}{47}\protected@file@percent }
\@writefile{lof}{\contentsline {figure}{\numberline {F.4}{\ignorespaces Environment Configuration UI mock-up}}{47}\protected@file@percent }
\@writefile{lof}{\contentsline {figure}{\numberline {F.5}{\ignorespaces Intervention Configuration UI mock-up}}{48}\protected@file@percent }
\@writefile{lof}{\contentsline {figure}{\numberline {F.6}{\ignorespaces Other UI mock-up}}{48}\protected@file@percent }
\@writefile{lof}{\contentsline {figure}{\numberline {F.7}{\ignorespaces Modular Intervention UI mock-ups}}{49}\protected@file@percent }
\@writefile{toc}{\contentsline {chapter}{\numberline {G}Visualization Mockups}{50}\protected@file@percent }
\@writefile{lof}{\addvspace {10\p@ }}
\@writefile{lot}{\addvspace {10\p@ }}
\newlabel{visualization_mockups}{{G}{50}}
\@writefile{lof}{\contentsline {figure}{\numberline {G.1}{\ignorespaces Visualization showing the number of agents in each state}}{50}\protected@file@percent }
\@writefile{lof}{\contentsline {figure}{\numberline {G.2}{\ignorespaces Visualization showing the distribution of active cases}}{50}\protected@file@percent }
\@writefile{lof}{\contentsline {figure}{\numberline {G.3}{\ignorespaces Visualization showing the number of isolating}}{51}\protected@file@percent }
\@writefile{lof}{\contentsline {figure}{\numberline {G.4}{\ignorespaces Visualization showing the progression of the R rate}}{51}\protected@file@percent }
\@writefile{toc}{\contentsline {chapter}{\numberline {H}Deployment Diagram}{52}\protected@file@percent }
\@writefile{lof}{\addvspace {10\p@ }}
\@writefile{lot}{\addvspace {10\p@ }}
\@writefile{lof}{\contentsline {figure}{\numberline {H.1}{\ignorespaces Deployment diagram}}{52}\protected@file@percent }
\newlabel{deployment_diagram}{{H.1}{52}}
\@writefile{toc}{\contentsline {chapter}{\numberline {I}Case Study}{53}\protected@file@percent }
\@writefile{lof}{\addvspace {10\p@ }}
\@writefile{lot}{\addvspace {10\p@ }}
\newlabel{case_study}{{I}{53}}
\@writefile{toc}{\contentsline {section}{\numberline {I.1}COVID-19 Parameters}{53}\protected@file@percent }
\newlabel{covid19params}{{I.1}{53}}
\@writefile{lot}{\contentsline {table}{\numberline {I.1}{\ignorespaces Case study (stage parameters)}}{53}\protected@file@percent }
\@writefile{lof}{\contentsline {figure}{\numberline {I.1}{\ignorespaces Case study (stage transitions)}}{53}\protected@file@percent }
\@writefile{toc}{\contentsline {section}{\numberline {I.2}School Environment}{53}\protected@file@percent }
\newlabel{schoolenv}{{I.2}{53}}
\@writefile{toc}{\contentsline {section}{\numberline {I.3}Results}{56}\protected@file@percent }
\@writefile{lof}{\contentsline {figure}{\numberline {I.2}{\ignorespaces Expected output from the simulation. Graph shows the number of COVID-19 cases in children aged 5-19 over September and October 2020}}{56}\protected@file@percent }
\newlabel{r1}{{I.2}{56}}
\@writefile{lof}{\contentsline {figure}{\numberline {I.3}{\ignorespaces Simulation output. Graph shows the transmission of disease with distancing (12\%) enabled.}}{56}\protected@file@percent }
\newlabel{r2}{{I.3}{56}}
\@writefile{lof}{\contentsline {figure}{\numberline {I.4}{\ignorespaces Expected output from the simulation. Graph shows the number of COVID-19 cases in children aged 5-19 over March and April 2021}}{57}\protected@file@percent }
\newlabel{r3}{{I.4}{57}}
\@writefile{lof}{\contentsline {figure}{\numberline {I.5}{\ignorespaces Simulation output. Graph shows the transmission of disease with testing (99.97\%) and mask wearing (53\%) enabled.}}{57}\protected@file@percent }
\newlabel{r4}{{I.5}{57}}
\@writefile{toc}{\contentsline {chapter}{\numberline {J}Questionnaire}{58}\protected@file@percent }
\@writefile{lof}{\addvspace {10\p@ }}
\@writefile{lot}{\addvspace {10\p@ }}
\newlabel{questionnaire}{{J}{58}}
\@writefile{lof}{\contentsline {figure}{\numberline {J.1}{\ignorespaces Question 1}}{58}\protected@file@percent }
\@writefile{lof}{\contentsline {figure}{\numberline {J.2}{\ignorespaces Question 2}}{58}\protected@file@percent }
\@writefile{lof}{\contentsline {figure}{\numberline {J.3}{\ignorespaces Question 3}}{58}\protected@file@percent }
\@writefile{lof}{\contentsline {figure}{\numberline {J.4}{\ignorespaces Question 4}}{59}\protected@file@percent }
\@writefile{lof}{\contentsline {figure}{\numberline {J.5}{\ignorespaces Question 5}}{59}\protected@file@percent }
\@writefile{lof}{\contentsline {figure}{\numberline {J.6}{\ignorespaces Question 6}}{59}\protected@file@percent }
\@writefile{lof}{\contentsline {figure}{\numberline {J.7}{\ignorespaces Question 7}}{59}\protected@file@percent }
\@writefile{lof}{\contentsline {figure}{\numberline {J.8}{\ignorespaces Question 8}}{59}\protected@file@percent }
\@writefile{lof}{\contentsline {figure}{\numberline {J.9}{\ignorespaces Question 9}}{60}\protected@file@percent }
\@writefile{lof}{\contentsline {figure}{\numberline {J.10}{\ignorespaces Question 10}}{60}\protected@file@percent }
\@writefile{lof}{\contentsline {figure}{\numberline {J.11}{\ignorespaces Question 11}}{60}\protected@file@percent }
\@writefile{lof}{\contentsline {figure}{\numberline {J.12}{\ignorespaces Question 12}}{60}\protected@file@percent }
\@writefile{lof}{\contentsline {figure}{\numberline {J.13}{\ignorespaces Question 13}}{60}\protected@file@percent }
\@writefile{lof}{\contentsline {figure}{\numberline {J.14}{\ignorespaces Question 14}}{61}\protected@file@percent }
\@writefile{toc}{\contentsline {chapter}{\numberline {K}Unit Tests}{62}\protected@file@percent }
\@writefile{lof}{\addvspace {10\p@ }}
\@writefile{lot}{\addvspace {10\p@ }}
\newlabel{unittests}{{K}{62}}
\@writefile{lot}{\contentsline {table}{\numberline {K.1}{\ignorespaces Unit tests}}{62}\protected@file@percent }
\newlabel{defined_unit_tests}{{K.1}{62}}
\@writefile{lof}{\contentsline {figure}{\numberline {K.1}{\ignorespaces Passed unit tests: 100\% success}}{63}\protected@file@percent }
\newlabel{passed_unit_tests}{{K.1}{63}}
\@writefile{toc}{\contentsline {chapter}{\numberline {L}Benchmarking Results}{64}\protected@file@percent }
\@writefile{lof}{\addvspace {10\p@ }}
\@writefile{lot}{\addvspace {10\p@ }}
\@writefile{lof}{\contentsline {figure}{\numberline {L.1}{\ignorespaces Execution Mode v.s. Total Execution Time (20 iterations)}}{64}\protected@file@percent }
\newlabel{benchmarking_execution_mode}{{L.1}{64}}
\@writefile{lof}{\contentsline {figure}{\numberline {L.2}{\ignorespaces Simulation Length v.s. Execution Duration}}{65}\protected@file@percent }
\newlabel{benchmarking_simulation_length}{{L.2}{65}}
\@writefile{lof}{\contentsline {figure}{\numberline {L.3}{\ignorespaces Results Reproducibility}}{65}\protected@file@percent }
\newlabel{benchmarking_reproducability}{{L.3}{65}}
\@writefile{toc}{\contentsline {chapter}{\numberline {M}Final Solution}{66}\protected@file@percent }
\@writefile{lof}{\addvspace {10\p@ }}
\@writefile{lot}{\addvspace {10\p@ }}
\newlabel{final_solution}{{M}{66}}
\@writefile{lof}{\contentsline {figure}{\numberline {M.1}{\ignorespaces Results Reproducibility}}{66}\protected@file@percent }
\newlabel{benchmarking_reproducability}{{M.1}{66}}
\@writefile{lof}{\contentsline {figure}{\numberline {M.2}{\ignorespaces Results Reproducibility}}{66}\protected@file@percent }
\newlabel{benchmarking_reproducability}{{M.2}{66}}
\@writefile{lof}{\contentsline {figure}{\numberline {M.3}{\ignorespaces Results Reproducibility}}{67}\protected@file@percent }
\newlabel{benchmarking_reproducability}{{M.3}{67}}
\@writefile{lof}{\contentsline {figure}{\numberline {M.4}{\ignorespaces Results Reproducibility}}{67}\protected@file@percent }
\newlabel{benchmarking_reproducability}{{M.4}{67}}
\@setckpt{appendices}{
\setcounter{page}{68}
\setcounter{equation}{0}
\setcounter{enumi}{4}
\setcounter{enumii}{0}
\setcounter{enumiii}{0}
\setcounter{enumiv}{58}
\setcounter{footnote}{0}
\setcounter{mpfootnote}{0}
\setcounter{part}{0}
\setcounter{chapter}{7}
\setcounter{section}{0}
\setcounter{subsection}{0}
\setcounter{subsubsection}{0}
\setcounter{paragraph}{0}
\setcounter{subparagraph}{0}
\setcounter{figure}{4}
\setcounter{table}{0}
\setcounter{@pps}{1}
\setcounter{@ppsavesec}{7}
\setcounter{@ppsaveapp}{13}
\setcounter{subfigure}{0}
\setcounter{lofdepth}{1}
\setcounter{subtable}{0}
\setcounter{lotdepth}{1}
\setcounter{parentequation}{0}
\setcounter{BAenumi}{0}
\setcounter{lstnumber}{96}
\setcounter{@todonotes@numberoftodonotes}{0}
\setcounter{lstlisting}{0}
}
