\relax 
\bibstyle{ieeetr}
\@input{prelude.aux}
\providecommand \oddpage@label [2]{}
\@input{./chapters/introduction.aux}
\@input{./chapters/literature.aux}
\@input{./chapters/outline.aux}
\@input{./chapters/design.aux}
\@input{./chapters/implementation.aux}
\@input{./chapters/evaluation.aux}
\@input{./chapters/discussion.aux}
\bibdata{refs}
\bibcite{deaths}{1}
\bibcite{what-if}{2}
\bibcite{definitions}{3}
\bibcite{daniel_bernoulli}{4}
\bibcite{compartmental_models}{5}
\bibcite{hamer}{6}
\bibcite{ross}{7}
\bibcite{communicable_disease_definition}{8}
\bibcite{kermack_mckendrick_1}{9}
\bibcite{sir_model_definition}{10}
\bibcite{pitfalls}{11}
\bibcite{galton}{12}
\bibcite{reed_frost}{13}
\bibcite{sir_extensions}{14}
\bibcite{sir_extensions_2}{15}
\bibcite{sir_extensions_3}{16}
\bibcite{daley_and_gani}{17}
\@writefile{toc}{\contentsline {chapter}{References}{30}\protected@file@percent }
\bibcite{bartlett}{18}
\bibcite{first_case}{19}
\bibcite{symptoms}{20}
\bibcite{pandemic_announcement}{21}
\bibcite{vaccine_delay}{22}
\bibcite{uk_response}{23}
\bibcite{social_isolation}{24}
\bibcite{physical_activity}{25}
\bibcite{recession}{26}
\bibcite{mask_wearing}{27}
\bibcite{social_distancing}{28}
\bibcite{modelling_covid19}{29}
\bibcite{agent_based_overview}{30}
\bibcite{agent_based_overview_2}{31}
\bibcite{shelling}{32}
\bibcite{reynolds}{33}
\bibcite{sugarscape}{34}
\bibcite{abm_benefits}{35}
\bibcite{covasim}{36}
\bibcite{monte_carlo}{37}
\bibcite{monte_carlo_2}{38}
\bibcite{living_with_covid}{39}
\bibcite{abm_options}{40}
\bibcite{netlogo}{41}
\bibcite{sep2020}{42}
\bibcite{covid19_1}{43}
\bibcite{covid19_2}{44}
\bibcite{covid19_3}{45}
\bibcite{covid19_4}{46}
\bibcite{covid19_5}{47}
\bibcite{covid19_6}{48}
\bibcite{covid19_7}{49}
\bibcite{covid19_8}{50}
\bibcite{covid19_9}{51}
\bibcite{covid19_10}{52}
\bibcite{covid19_11}{53}
\bibcite{covid19_12}{54}
\bibcite{intervention_effects}{55}
\bibcite{lateral_flows}{56}
\bibcite{lateral_flows_use}{57}
\bibcite{overeliance}{58}
\@input{appendices.aux}
