\relax 
\@writefile{toc}{\contentsline {chapter}{\numberline {4}Design}{11}\protected@file@percent }
\@writefile{lof}{\addvspace {10\p@ }}
\@writefile{lot}{\addvspace {10\p@ }}
\newlabel{design}{{4}{11}}
\@writefile{toc}{\contentsline {section}{\numberline {4.1}Solution Architecture}{11}\protected@file@percent }
\@writefile{toc}{\contentsline {section}{\numberline {4.2}Requirements Gathering}{11}\protected@file@percent }
\newlabel{requirements_gathering}{{4.2}{11}}
\@writefile{toc}{\contentsline {subsection}{\numberline {4.2.1}Stakeholder Discussion}{11}\protected@file@percent }
\@writefile{toc}{\contentsline {subsection}{\numberline {4.2.2}Analysis of Existing Solutions}{11}\protected@file@percent }
\@writefile{toc}{\contentsline {subsection}{\numberline {4.2.3}Use Cases \& User Stories}{11}\protected@file@percent }
\@writefile{toc}{\contentsline {section}{\numberline {4.3}Requirements}{12}\protected@file@percent }
\@writefile{lot}{\contentsline {table}{\numberline {4.1}{\ignorespaces Solution requirements and acceptance criteria}}{12}\protected@file@percent }
\@writefile{toc}{\contentsline {subsection}{\numberline {4.3.1}Rich Picture}{12}\protected@file@percent }
\@writefile{toc}{\contentsline {section}{\numberline {4.4}Model Outline}{13}\protected@file@percent }
\newlabel{model_outline}{{4.4}{13}}
\@writefile{lot}{\contentsline {table}{\numberline {4.2}{\ignorespaces Agent attributes}}{13}\protected@file@percent }
\newlabel{agent_attributes}{{4.2}{13}}
\@writefile{lot}{\contentsline {table}{\numberline {4.3}{\ignorespaces Disease stage parameters}}{14}\protected@file@percent }
\newlabel{disease_parameters}{{4.3}{14}}
\@writefile{lot}{\contentsline {table}{\numberline {4.4}{\ignorespaces Interventions supported by the model}}{14}\protected@file@percent }
\newlabel{interventions_offered}{{4.4}{14}}
\@writefile{toc}{\contentsline {section}{\numberline {4.5}Interface Mock-ups}{14}\protected@file@percent }
\@setckpt{./chapters/design}{
\setcounter{page}{16}
\setcounter{equation}{0}
\setcounter{enumi}{0}
\setcounter{enumii}{0}
\setcounter{enumiii}{0}
\setcounter{enumiv}{0}
\setcounter{footnote}{1}
\setcounter{mpfootnote}{0}
\setcounter{part}{0}
\setcounter{chapter}{4}
\setcounter{section}{5}
\setcounter{subsection}{0}
\setcounter{subsubsection}{0}
\setcounter{paragraph}{0}
\setcounter{subparagraph}{0}
\setcounter{figure}{0}
\setcounter{table}{4}
\setcounter{@pps}{0}
\setcounter{@ppsavesec}{0}
\setcounter{@ppsaveapp}{0}
\setcounter{subfigure}{0}
\setcounter{lofdepth}{1}
\setcounter{subtable}{0}
\setcounter{lotdepth}{1}
\setcounter{parentequation}{0}
\setcounter{BAenumi}{0}
\setcounter{lstnumber}{1}
\setcounter{@todonotes@numberoftodonotes}{0}
\setcounter{lstlisting}{0}
}
