\relax 
\citation{intervention_effects}
\@writefile{toc}{\contentsline {chapter}{\numberline {7}Results \& Discussion}{26}\protected@file@percent }
\@writefile{lof}{\addvspace {10\p@ }}
\@writefile{lot}{\addvspace {10\p@ }}
\newlabel{discussion}{{7}{26}}
\@writefile{toc}{\contentsline {section}{\numberline {7.1}Final Solution}{26}\protected@file@percent }
\newlabel{final_solution}{{7.1}{26}}
\@writefile{toc}{\contentsline {section}{\numberline {7.2}Testing}{26}\protected@file@percent }
\newlabel{testing}{{7.2}{26}}
\@writefile{toc}{\contentsline {section}{\numberline {7.3}Case Study Results}{26}\protected@file@percent }
\newlabel{case_study_results}{{7.3}{26}}
\citation{intervention_effects}
\citation{lateral_flows}
\citation{lateral_flows_use}
\@writefile{toc}{\contentsline {section}{\numberline {7.4}Benchmarking Results}{27}\protected@file@percent }
\newlabel{benchmarking_results}{{7.4}{27}}
\@writefile{toc}{\contentsline {section}{\numberline {7.5}User Evaluation Results}{28}\protected@file@percent }
\newlabel{user_evaluation_results}{{7.5}{28}}
\@writefile{lof}{\contentsline {figure}{\numberline {7.1}{\ignorespaces User evaluation study results}}{28}\protected@file@percent }
\@writefile{toc}{\contentsline {section}{\numberline {7.6}Conclusion}{29}\protected@file@percent }
\newlabel{overall_evaluation}{{7.6}{29}}
\@writefile{toc}{\contentsline {section}{\numberline {7.7}Ideas for Future Work}{29}\protected@file@percent }
\newlabel{future_work}{{7.7}{29}}
\@setckpt{./chapters/discussion}{
\setcounter{page}{30}
\setcounter{equation}{0}
\setcounter{enumi}{2}
\setcounter{enumii}{0}
\setcounter{enumiii}{0}
\setcounter{enumiv}{0}
\setcounter{footnote}{0}
\setcounter{mpfootnote}{0}
\setcounter{part}{0}
\setcounter{chapter}{7}
\setcounter{section}{7}
\setcounter{subsection}{0}
\setcounter{subsubsection}{0}
\setcounter{paragraph}{0}
\setcounter{subparagraph}{0}
\setcounter{figure}{1}
\setcounter{table}{0}
\setcounter{@pps}{0}
\setcounter{@ppsavesec}{0}
\setcounter{@ppsaveapp}{0}
\setcounter{subfigure}{0}
\setcounter{lofdepth}{1}
\setcounter{subtable}{0}
\setcounter{lotdepth}{1}
\setcounter{parentequation}{0}
\setcounter{BAenumi}{0}
\setcounter{lstnumber}{1}
\setcounter{@todonotes@numberoftodonotes}{0}
\setcounter{lstlisting}{0}
}
