\relax 
\citation{sep2020}
\@writefile{toc}{\contentsline {chapter}{\numberline {6}Evaluation Methods}{23}\protected@file@percent }
\@writefile{lof}{\addvspace {10\p@ }}
\@writefile{lot}{\addvspace {10\p@ }}
\newlabel{evaluation}{{6}{23}}
\@writefile{toc}{\contentsline {section}{\numberline {6.1}Case Study: UK School}{23}\protected@file@percent }
\newlabel{casestudyintro}{{6.1}{23}}
\@writefile{lot}{\contentsline {table}{\numberline {6.1}{\ignorespaces Motivation for case study}}{23}\protected@file@percent }
\newlabel{case_study_motivations}{{6.1}{23}}
\citation{covid19_1}
\citation{covid19_2}
\citation{covid19_3}
\citation{covid19_4}
\citation{covid19_5}
\citation{covid19_6}
\citation{covid19_7}
\citation{covid19_8}
\citation{covid19_9}
\citation{covid19_10}
\citation{covid19_11}
\citation{covid19_12}
\@writefile{toc}{\contentsline {subsection}{\numberline {6.1.1}Gathering COVID-19 data}{24}\protected@file@percent }
\@writefile{lof}{\contentsline {figure}{\numberline {6.1}{\ignorespaces COVID-19 cases}}{24}\protected@file@percent }
\@writefile{toc}{\contentsline {subsection}{\numberline {6.1.2}Designing \& implementing the environment}{24}\protected@file@percent }
\@writefile{toc}{\contentsline {section}{\numberline {6.2}Benchmarking}{25}\protected@file@percent }
\newlabel{benchmarkintro}{{6.2}{25}}
\@writefile{toc}{\contentsline {section}{\numberline {6.3}User Evaluation}{25}\protected@file@percent }
\@setckpt{./chapters/evaluation}{
\setcounter{page}{26}
\setcounter{equation}{0}
\setcounter{enumi}{2}
\setcounter{enumii}{0}
\setcounter{enumiii}{0}
\setcounter{enumiv}{0}
\setcounter{footnote}{0}
\setcounter{mpfootnote}{0}
\setcounter{part}{0}
\setcounter{chapter}{6}
\setcounter{section}{3}
\setcounter{subsection}{0}
\setcounter{subsubsection}{0}
\setcounter{paragraph}{0}
\setcounter{subparagraph}{0}
\setcounter{figure}{1}
\setcounter{table}{1}
\setcounter{@pps}{0}
\setcounter{@ppsavesec}{0}
\setcounter{@ppsaveapp}{0}
\setcounter{subfigure}{0}
\setcounter{lofdepth}{1}
\setcounter{subtable}{0}
\setcounter{lotdepth}{1}
\setcounter{parentequation}{0}
\setcounter{BAenumi}{0}
\setcounter{lstnumber}{1}
\setcounter{@todonotes@numberoftodonotes}{0}
\setcounter{lstlisting}{0}
}
