\relax 
\@writefile{toc}{\contentsline {chapter}{\numberline {5}Implementation}{16}\protected@file@percent }
\@writefile{lof}{\addvspace {10\p@ }}
\@writefile{lot}{\addvspace {10\p@ }}
\newlabel{implementation}{{5}{16}}
\@writefile{toc}{\contentsline {section}{\numberline {5.1}Model}{16}\protected@file@percent }
\@writefile{toc}{\contentsline {subsection}{\numberline {5.1.1}Summary}{16}\protected@file@percent }
\@writefile{toc}{\contentsline {subsection}{\numberline {5.1.2}UML Diagram}{16}\protected@file@percent }
\@writefile{toc}{\contentsline {subsection}{\numberline {5.1.3}Simulation}{16}\protected@file@percent }
\@writefile{lof}{\contentsline {figure}{\numberline {5.1}{\ignorespaces Summarised model UML diagram}}{17}\protected@file@percent }
\newlabel{uml1}{{5.1}{17}}
\@writefile{lof}{\contentsline {figure}{\numberline {5.2}{\ignorespaces High-level structure}}{17}\protected@file@percent }
\newlabel{simulation_relation}{{5.2}{17}}
\@writefile{toc}{\contentsline {subsection}{\numberline {5.1.4}Model}{17}\protected@file@percent }
\@writefile{toc}{\contentsline {subsection}{\numberline {5.1.5}Parameters}{17}\protected@file@percent }
\@writefile{toc}{\contentsline {subsection}{\numberline {5.1.6}Results}{17}\protected@file@percent }
\@writefile{lof}{\contentsline {figure}{\numberline {5.3}{\ignorespaces Results}}{18}\protected@file@percent }
\newlabel{results_handling}{{5.3}{18}}
\@writefile{toc}{\contentsline {subsection}{\numberline {5.1.7}Population}{18}\protected@file@percent }
\@writefile{lof}{\contentsline {figure}{\numberline {5.4}{\ignorespaces Possible options for agent implementation}}{18}\protected@file@percent }
\newlabel{agent_implementations}{{5.4}{18}}
\@writefile{toc}{\contentsline {subsection}{\numberline {5.1.8}Disease \& Infection}{19}\protected@file@percent }
\@writefile{toc}{\contentsline {subsection}{\numberline {5.1.9}Environment}{19}\protected@file@percent }
\@writefile{toc}{\contentsline {subsection}{\numberline {5.1.10}Interventions}{19}\protected@file@percent }
\@writefile{lof}{\contentsline {figure}{\numberline {5.5}{\ignorespaces Using a custom environment}}{20}\protected@file@percent }
\newlabel{flowchart}{{5.5}{20}}
\@writefile{toc}{\contentsline {subsection}{\numberline {5.1.11}Performing Monte Carlo Experiments}{20}\protected@file@percent }
\newlabel{performning_monte_carlo}{{5.1.11}{20}}
\@writefile{toc}{\contentsline {section}{\numberline {5.2}User Interface \& Application}{21}\protected@file@percent }
\@writefile{toc}{\contentsline {subsection}{\numberline {5.2.1}Summary}{21}\protected@file@percent }
\@writefile{toc}{\contentsline {subsection}{\numberline {5.2.2}UML Diagram}{21}\protected@file@percent }
\@writefile{lof}{\contentsline {figure}{\numberline {5.6}{\ignorespaces Summarised interface UML diagram}}{21}\protected@file@percent }
\newlabel{uml2}{{5.6}{21}}
\@writefile{toc}{\contentsline {subsection}{\numberline {5.2.3}Wrapper Widgets}{21}\protected@file@percent }
\@writefile{toc}{\contentsline {subsection}{\numberline {5.2.4}Interface Components}{21}\protected@file@percent }
\@writefile{lot}{\contentsline {table}{\numberline {5.1}{\ignorespaces Interface components}}{22}\protected@file@percent }
\newlabel{interface_components}{{5.1}{22}}
\@writefile{toc}{\contentsline {subsection}{\numberline {5.2.5}Constructing Visualizations}{22}\protected@file@percent }
\@setckpt{./chapters/implementation}{
\setcounter{page}{23}
\setcounter{equation}{0}
\setcounter{enumi}{2}
\setcounter{enumii}{0}
\setcounter{enumiii}{0}
\setcounter{enumiv}{0}
\setcounter{footnote}{0}
\setcounter{mpfootnote}{0}
\setcounter{part}{0}
\setcounter{chapter}{5}
\setcounter{section}{2}
\setcounter{subsection}{5}
\setcounter{subsubsection}{0}
\setcounter{paragraph}{0}
\setcounter{subparagraph}{0}
\setcounter{figure}{6}
\setcounter{table}{1}
\setcounter{@pps}{0}
\setcounter{@ppsavesec}{0}
\setcounter{@ppsaveapp}{0}
\setcounter{subfigure}{0}
\setcounter{lofdepth}{1}
\setcounter{subtable}{0}
\setcounter{lotdepth}{1}
\setcounter{parentequation}{0}
\setcounter{BAenumi}{0}
\setcounter{lstnumber}{1}
\setcounter{@todonotes@numberoftodonotes}{0}
\setcounter{lstlisting}{0}
}
