\relax 
\citation{deaths}
\citation{what-if}
\@writefile{toc}{\contentsline {chapter}{\numberline {1}Introduction}{1}\protected@file@percent }
\@writefile{lof}{\addvspace {10\p@ }}
\@writefile{lot}{\addvspace {10\p@ }}
\newlabel{introduction}{{1}{1}}
\@setckpt{./chapters/introduction}{
\setcounter{page}{2}
\setcounter{equation}{0}
\setcounter{enumi}{0}
\setcounter{enumii}{0}
\setcounter{enumiii}{0}
\setcounter{enumiv}{0}
\setcounter{footnote}{1}
\setcounter{mpfootnote}{0}
\setcounter{part}{0}
\setcounter{chapter}{1}
\setcounter{section}{0}
\setcounter{subsection}{0}
\setcounter{subsubsection}{0}
\setcounter{paragraph}{0}
\setcounter{subparagraph}{0}
\setcounter{figure}{0}
\setcounter{table}{0}
\setcounter{@pps}{0}
\setcounter{@ppsavesec}{0}
\setcounter{@ppsaveapp}{0}
\setcounter{subfigure}{0}
\setcounter{lofdepth}{1}
\setcounter{subtable}{0}
\setcounter{lotdepth}{1}
\setcounter{parentequation}{0}
\setcounter{BAenumi}{0}
\setcounter{lstnumber}{1}
\setcounter{@todonotes@numberoftodonotes}{0}
\setcounter{lstlisting}{0}
}
