\relax 
\citation{definitions}
\citation{daniel_bernoulli}
\citation{daniel_bernoulli}
\citation{compartmental_models}
\citation{hamer}
\citation{ross}
\citation{communicable_disease_definition}
\citation{kermack_mckendrick_1}
\citation{sir_model_definition}
\@writefile{toc}{\contentsline {chapter}{\numberline {2}Literature Review}{2}\protected@file@percent }
\@writefile{lof}{\addvspace {10\p@ }}
\@writefile{lot}{\addvspace {10\p@ }}
\@writefile{toc}{\contentsline {section}{\numberline {2.1}Definitions}{2}\protected@file@percent }
\newlabel{definitions}{{2.1}{2}}
\@writefile{toc}{\contentsline {section}{\numberline {2.2}A brief history of pandemic modelling \& simulations}{2}\protected@file@percent }
\newlabel{history}{{2.2}{2}}
\citation{pitfalls}
\citation{galton}
\citation{reed_frost}
\citation{sir_extensions}
\citation{sir_extensions_2}
\citation{sir_extensions_3}
\citation{daley_and_gani}
\citation{bartlett}
\citation{first_case}
\citation{symptoms}
\citation{pandemic_announcement}
\citation{vaccine_delay}
\citation{uk_response}
\citation{social_isolation}
\citation{physical_activity}
\citation{recession}
\citation{mask_wearing}
\citation{social_distancing}
\@writefile{toc}{\contentsline {section}{\numberline {2.3}Using simulations to understand COVID-19}{3}\protected@file@percent }
\newlabel{covid_19}{{2.3}{3}}
\citation{modelling_covid19}
\citation{agent_based_overview}
\citation{agent_based_overview_2}
\citation{shelling}
\citation{reynolds}
\citation{sugarscape}
\citation{agent_based_overview}
\citation{abm_benefits}
\@writefile{toc}{\contentsline {section}{\numberline {2.4}Agent-based models \& simulations}{4}\protected@file@percent }
\newlabel{agent_based}{{2.4}{4}}
\@writefile{toc}{\contentsline {subsection}{\numberline {2.4.1}Advantages of agent-based approaches}{4}\protected@file@percent }
\newlabel{agent_based_advantages}{{2.4.1}{4}}
\@writefile{toc}{\contentsline {paragraph}{Emergent Behaviour}{5}\protected@file@percent }
\@writefile{toc}{\contentsline {paragraph}{Natural Description}{5}\protected@file@percent }
\@writefile{toc}{\contentsline {paragraph}{Flexibility}{5}\protected@file@percent }
\@writefile{toc}{\contentsline {subsection}{\numberline {2.4.2}Disadvantages of agent-based approaches}{5}\protected@file@percent }
\newlabel{abm_disadvantages_1}{{2.4.2}{5}}
\citation{covasim}
\citation{monte_carlo}
\citation{monte_carlo_2}
\citation{living_with_covid}
\@writefile{toc}{\contentsline {subsection}{\numberline {2.4.3}Agent-based modelling of a pandemic}{6}\protected@file@percent }
\newlabel{covasim}{{2.4.3}{6}}
\@writefile{toc}{\contentsline {section}{\numberline {2.5}Simulating stochastic processes}{6}\protected@file@percent }
\newlabel{monte_carlo}{{2.5}{6}}
\@writefile{toc}{\contentsline {section}{\numberline {2.6}Motivations}{6}\protected@file@percent }
\newlabel{motivations}{{2.6}{6}}
\@writefile{toc}{\contentsline {subsection}{\numberline {2.6.1}Why is such a flexible simulation tool required?}{6}\protected@file@percent }
\@writefile{toc}{\contentsline {subsection}{\numberline {2.6.2}Why is agent-based modelling the best approach for such a tool?}{7}\protected@file@percent }
\@setckpt{./chapters/literature}{
\setcounter{page}{8}
\setcounter{equation}{0}
\setcounter{enumi}{0}
\setcounter{enumii}{0}
\setcounter{enumiii}{0}
\setcounter{enumiv}{0}
\setcounter{footnote}{9}
\setcounter{mpfootnote}{0}
\setcounter{part}{0}
\setcounter{chapter}{2}
\setcounter{section}{6}
\setcounter{subsection}{2}
\setcounter{subsubsection}{0}
\setcounter{paragraph}{0}
\setcounter{subparagraph}{0}
\setcounter{figure}{0}
\setcounter{table}{0}
\setcounter{@pps}{0}
\setcounter{@ppsavesec}{0}
\setcounter{@ppsaveapp}{0}
\setcounter{subfigure}{0}
\setcounter{lofdepth}{1}
\setcounter{subtable}{0}
\setcounter{lotdepth}{1}
\setcounter{parentequation}{0}
\setcounter{BAenumi}{0}
\setcounter{lstnumber}{1}
\setcounter{@todonotes@numberoftodonotes}{0}
\setcounter{lstlisting}{0}
}
