\relax 
\@writefile{toc}{\contentsline {chapter}{\numberline {3}Project Outline}{8}\protected@file@percent }
\@writefile{lof}{\addvspace {10\p@ }}
\@writefile{lot}{\addvspace {10\p@ }}
\@writefile{toc}{\contentsline {section}{\numberline {3.1}Project Specification}{8}\protected@file@percent }
\newlabel{project_summary}{{3.1}{8}}
\@writefile{toc}{\contentsline {section}{\numberline {3.2}Project Objectives}{8}\protected@file@percent }
\newlabel{project_objectives}{{3.2}{8}}
\@writefile{toc}{\contentsline {section}{\numberline {3.3}Development Approach \& Methodology}{8}\protected@file@percent }
\newlabel{development_approach}{{3.3}{8}}
\@writefile{toc}{\contentsline {section}{\numberline {3.4}Project Timeline}{9}\protected@file@percent }
\newlabel{project_timeline}{{3.4}{9}}
\@writefile{lof}{\contentsline {figure}{\numberline {3.1}{\ignorespaces Gantt Chart}}{9}\protected@file@percent }
\newlabel{gantt_chart}{{3.1}{9}}
\@writefile{toc}{\contentsline {section}{\numberline {3.5}Development Tools}{9}\protected@file@percent }
\newlabel{development_tools}{{3.5}{9}}
\@writefile{toc}{\contentsline {subsection}{\numberline {3.5.1}Language Selection}{9}\protected@file@percent }
\citation{abm_options}
\citation{netlogo}
\@writefile{lot}{\contentsline {table}{\numberline {3.1}{\ignorespaces Development Tools}}{10}\protected@file@percent }
\newlabel{tools}{{3.1}{10}}
\@setckpt{./chapters/outline}{
\setcounter{page}{11}
\setcounter{equation}{0}
\setcounter{enumi}{0}
\setcounter{enumii}{0}
\setcounter{enumiii}{0}
\setcounter{enumiv}{0}
\setcounter{footnote}{1}
\setcounter{mpfootnote}{0}
\setcounter{part}{0}
\setcounter{chapter}{3}
\setcounter{section}{5}
\setcounter{subsection}{1}
\setcounter{subsubsection}{0}
\setcounter{paragraph}{0}
\setcounter{subparagraph}{0}
\setcounter{figure}{1}
\setcounter{table}{1}
\setcounter{@pps}{0}
\setcounter{@ppsavesec}{0}
\setcounter{@ppsaveapp}{0}
\setcounter{subfigure}{0}
\setcounter{lofdepth}{1}
\setcounter{subtable}{0}
\setcounter{lotdepth}{1}
\setcounter{parentequation}{0}
\setcounter{BAenumi}{0}
\setcounter{lstnumber}{1}
\setcounter{@todonotes@numberoftodonotes}{0}
\setcounter{lstlisting}{0}
}
