{
    "seed": null,
    "verbose": 2,
    "models": 4,
    "mode": "multiprocessing",
    "days": 50,
    "initial": 5,
    "agents": {
        "student": {
            "quantity": 210,
            "mean": 0.0,
            "std": 0.0
        },
        "teacher": {
            "quantity": 30,
            "mean": 0.0,
            "std": 0.0001
        }
    },
    "transitions": {
        "initial": {
            "pre-sym": 1
        },
        "pre-sym": {
            "sym": 0.83,
            "asym": 0.17
        },
        "sym": {
            "rec": 0.95,
            "long": 0.05
        },
        "asym": {
            "rec": 0.95,
            "long": 0.05
        },
        "long": {
            "rec": 0.95,
            "long": 0.05
        }
    },
    "stages": {
        "pre-sym": {
            "length": {
                "mean": 5.0,
                "std": 0
            },
            "infectivity": {
                "mean": 0.012,
                "std": 0
            },
            "fatality": {
                "mean": 0.0015,
                "std": 0
            }
        },
        "sym": {
            "length": {
                "mean": 10.0,
                "std": 0
            },
            "infectivity": {
                "mean": 0.2,
                "std": 0
            },
            "fatality": {
                "mean": 0.013,
                "std": 0
            }
        },
        "asym": {
            "length": {
                "mean": 8.0,
                "std": 0
            },
            "infectivity": {
                "mean": 0.06,
                "std": 0
            },
            "fatality": {
                "mean": 0.0029,
                "std": 0
            }
        },
        "rec": {
            "length": {
                "mean": 10.0,
                "std": 0
            },
            "infectivity": {
                "mean": 0,
                "std": 0
            },
            "fatality": {
                "mean": 0,
                "std": 0
            }
        },
        "long": {
            "length": {
                "mean": 30.0,
                "std": 0
            },
            "infectivity": {
                "mean": 0,
                "std": 0
            },
            "fatality": {
                "mean": 0,
                "std": 0
            }
        }
    },
    "interventions": [],
    "name": "School",
    "path": "studies.school.school_environment",
    "spaces": 3,
    "env_parameters": {
        "classes": 2,
        "friends": 3,
        "random": 0.8
    }
}