WARNING: No handles with labels found to put in legend.
INFO: Agent Passed
INFO: Agent Passed
INFO: Agent Passed
INFO: Agent Passed
INFO: Agent Passed
INFO: Agent Passed
INFO: Agent Passed
INFO: Agent Passed
INFO: Agent Passed
INFO: Agent Passed
INFO: Agent Passed
INFO: Agent Passed
INFO: Agent Passed
INFO: Agent Passed
INFO: Agent Passed
INFO: Agent Passed
INFO: Agent Passed
INFO: Agent Passed
INFO: Agent Passed
